{
    "kms-platedetector-dbg": "6.16.0-0kurento1.18.04", 
    "kurento-dbg": "6.16.0-0kurento1.18.04", 
    "kms-core-dev": "6.16.0-0kurento1.18.04", 
    "kms-chroma-dbg": "6.16.0-0kurento1.18.04", 
    "bbb-lti": "1:2.4.0-2", 
    "bbb-playback-notes": "1:2.4.0-2", 
    "openwebrtc-gst-plugins": "0.10.0-1kurento1.18.04", 
    "kms-markerdetector": "6.16.0-0kurento1.18.04", 
    "bigbluebutton": "1:2.4.0-1", 
    "kms-crowddetector": "6.16.0-0kurento1.18.04", 
    "gir1.2-gst-plugins-bad-1.5": "1.8.1-1kurento5.18.04", 
    "gstreamer1.5-plugins-ugly": "1.8.1-1kurento1.18.04", 
    "kms-chroma": "6.16.0-0kurento1.18.04", 
    "bbb-mkclean": "1:0.8.7-1", 
    "openh264-gst-plugins-bad-1.5": "1.8.1-1kurento5.18.04", 
    "kms-pointerdetector-dev": "6.16.0-0kurento1.18.04", 
    "bbb-etherpad": "1:2.4.0-2", 
    "bbb-libreoffice-docker": "1:2.4.0-1", 
    "libusrsctp-dev": "0.9.2-1kurento1.18.04", 
    "gstreamer1.5-plugins-base": "1.8.1-1kurento2.18.04", 
    "libgstreamer1.5-0": "1.8.1-1kurento2.18.04", 
    "kms-filters-dbg": "6.16.0-0kurento1.18.04", 
    "kms-platedetector": "6.16.0-0kurento1.18.04", 
    "libnice10": "0.1.18-0kurento1.18.04", 
    "kms-core": "6.16.0-0kurento1.18.04", 
    "kmsjsoncpp-dbg": "1.6.3-1kurento1.18.04", 
    "kms-elements-dbg": "6.16.0-0kurento1.18.04", 
    "kurento-module-creator": "6.16.0-0kurento1.18.04", 
    "srtp-utils": "1.6.0-0kurento1.18.04", 
    "bbb-record-core": "1:2.4.0-4", 
    "kms-jsonrpc-dbg": "6.16.0-0kurento1.18.04", 
    "gstreamer1.5-plugins-good": "1.8.1-1kurento5.18.04", 
    "kms-filters": "6.16.0-0kurento1.18.04", 
    "kms-cmake-utils": "6.16.0-0kurento1.18.04", 
    "kms-elements": "6.16.0-0kurento1.18.04", 
    "bbb-html5": "1:2.4.0-1332", 
    "kms-core-dbg": "6.16.0-0kurento1.18.04", 
    "gir1.2-nice-0.1": "0.1.18-0kurento1.18.04", 
    "libnice10-dbgsym": "0.1.18-0kurento1.18.04", 
    "libusrsctp": "0.9.2-1kurento1.18.04", 
    "bbb-demo": "1:2.4.0-2", 
    "libgstreamer1.5-dev": "1.8.1-1kurento2.18.04", 
    "libgstreamer-plugins-base1.5-dev": "1.8.1-1kurento2.18.04", 
    "kurento-media-server": "6.16.0-0kurento1.18.04", 
    "gstreamer1.5-plugins-ugly-dbg": "1.8.1-1kurento1.18.04", 
    "openh264": "1.5.0-0kurento1.18.04", 
    "gstreamer1.5-libav": "1.8.1-1kurento1.18.04", 
    "bbb-config": "1:2.4.0-14", 
    "gstreamer1.0-nice-dbgsym": "0.1.18-0kurento1.18.04", 
    "libsrtp0-dbg": "1.6.0-0kurento1.18.04", 
    "openwebrtc-gst-plugins-dbg": "0.10.0-1kurento1.18.04", 
    "bbb-playback": "1:2.4.0-6", 
    "bbb-fsesl-akka": "2.4.0-13", 
    "gir1.2-gstreamer-1.5": "1.8.1-1kurento2.18.04", 
    "bbb-freeswitch-core": "2:2.4.0-2", 
    "bbb-apps-akka": "2.4.0-29", 
    "gstreamer1.5-nice": "0.1.18-0kurento1.18.04", 
    "kurento-media-server-dev": "6.16.0-0kurento1.18.04", 
    "libsrtp0-dev": "1.6.0-0kurento1.18.04", 
    "gstreamer1.5-tools": "1.8.1-1kurento2.18.04", 
    "kms-markerdetector-dev": "6.16.0-0kurento1.18.04", 
    "kmsjsoncpp": "1.6.3-1kurento1.18.04", 
    "libsrtp0": "1.6.0-0kurento1.18.04", 
    "kms-jsonrpc": "6.16.0-0kurento1.18.04", 
    "srtp-docs": "1.6.0-0kurento1.18.04", 
    "gstreamer1.5-x": "1.8.1-1kurento2.18.04", 
    "gstreamer1.5-plugins-base-apps": "1.8.1-1kurento2.18.04", 
    "kms-markerdetector-dbgsym": "6.16.0-0kurento1.18.04", 
    "gstreamer1.5-plugins-good-dbg": "1.8.1-1kurento5.18.04", 
    "openwebrtc-gst-plugins-dev": "0.10.0-1kurento1.18.04", 
    "gstreamer1.5-nice-dbgsym": "0.1.18-0kurento1.18.04", 
    "bbb-webrtc-sfu": "1:2.4.0-10", 
    "libgstreamer-plugins-base1.5-0": "1.8.1-1kurento2.18.04", 
    "bbb-activity-report": "1:2.4.0-5", 
    "libnice-dev": "0.1.18-0kurento1.18.04", 
    "libusrsctp-dbgsym": "0.9.2-1kurento1.18.04", 
    "bbb-freeswitch-sounds": "1:1.6.7-1", 
    "kms-pointerdetector-dbg": "6.16.0-0kurento1.18.04", 
    "gstreamer1.5-pulseaudio": "1.8.1-1kurento5.18.04", 
    "kms-filters-dev": "6.16.0-0kurento1.18.04", 
    "gir1.2-gst-plugins-base-1.5": "1.8.1-1kurento2.18.04", 
    "gstreamer1.0-nice": "0.1.18-0kurento1.18.04", 
    "kms-platedetector-dev": "6.16.0-0kurento1.18.04", 
    "gstreamer1.5-libav-dbg": "1.8.1-1kurento1.18.04", 
    "gstreamer1.5-alsa": "1.8.1-1kurento2.18.04", 
    "kms-chroma-dev": "6.16.0-0kurento1.18.04", 
    "bbb-playback-screenshare": "1:2.4.0-2", 
    "kms-datachannelexample": "6.16.0-0kurento1.18.04", 
    "libgstreamer1.5-0-dbg": "1.8.1-1kurento2.18.04", 
    "gstreamer1.5-plugins-base-dbg": "1.8.1-1kurento2.18.04", 
    "kms-datachannelexample-dbg": "6.16.0-0kurento1.18.04", 
    "kms-crowddetector-dbg": "6.16.0-0kurento1.18.04", 
    "kmsjsoncpp-dev": "1.6.3-1kurento1.18.04", 
    "bbb-web": "1:2.4.0-22", 
    "bbb-playback-podcast": "1:2.4.0-2", 
    "libgstreamer-plugins-bad1.5-0": "1.8.1-1kurento5.18.04", 
    "kms-elements-dev": "6.16.0-0kurento1.18.04", 
    "libgstreamer-plugins-bad1.5-dev": "1.8.1-1kurento5.18.04", 
    "gstreamer1.5-plugins-bad": "1.8.1-1kurento5.18.04", 
    "gstreamer1.5-plugins-bad-dbg": "1.8.1-1kurento5.18.04", 
    "kms-pointerdetector": "6.16.0-0kurento1.18.04", 
    "kms-crowddetector-dev": "6.16.0-0kurento1.18.04", 
    "bbb-webhooks": "1:2.4.0-2", 
    "kurento-media-server-dbg": "6.16.0-0kurento1.18.04", 
    "kms-jsonrpc-dev": "6.16.0-0kurento1.18.04", 
    "bbb-playback-presentation": "1:2.4.0-6", 
    "kms-datachannelexample-dev": "6.16.0-0kurento1.18.04"
}
